"File: led.c         Assembler  Version HGASM0202      Page 1


   1  0000              ; Generated by holtek-gcc v3.19, Fri Jan 21 10:03:43 2022
   2  0000              ; 
   3  0000              ; Configuration:
   4  0000              ;       with long instruction
   5  0000              ;       Single ROM, Multi-RAM
   6  0000              ;       bits_per_rom_unit:16
   7  0000              ;       with mp1
   8  0000              ;       with tbhp, address(0x9)
   9  0000              ;          Use tabrd-const
  10  0000              ;       
  11  0000              ; SFR address of long-instruction arch:
  12  0000              ;    mp0 = -1,1,0
  13  0000              ;    mp1 = 4,3,2
  14  0000              ;    mp2 = 14,13,12
  15  0000              ;    tbp = 9,7,8
  16  0000              ;    acc = 5
  17  0000              ;    pcl = 6
  18  0000              ;    status = 10
  19  0000              ;    bp = 11
  20  0000              ;    intc = 73
  21  0000              ;       
  22  0000              ;       
  23  0000              ; use 'tabrdc' instead of 'tabrd'
  24  0000              ;       
  25  0000              
  26  0000              #pragma translator "holtek-gcc 4.6.4" "3.19" "build 20130711"
  27  0000              ; Rebuild 718
  28  0000              
  29  0000              ir equ [2]
  30  0000              mp equ [3]
  31  0000              sbp equ [4]
  32  0000              acc equ [5]
  33  0000              bp equ [11]
  34  0000              tblp equ [7]
  35  0000              tbhp equ [9]
  36  0000              status equ [10]
  37  0000              c equ [10].0
  38  0000              ac equ [10].1
  39  0000              z equ [10].2
  40  0000              ov equ [10].3
  41  0000              cz equ [10].6
  42  0000              sc equ [10].7
  43  0000              intc equ [73]
  44  0000              
  45  0000              extern ra:byte
  46  0000              extern rb:byte
  47  0000              extern rc:byte
  48  0000              extern rd:byte
  49  0000              extern re:byte
  50  0000              extern rf:byte
  51  0000              extern rg:byte
  52  0000              extern rh:byte
  53  0000              extern _Crom2Prom:near
  54  0000              extern _Crom2PromNext:near
  55  0000              
  56  0000              RAMBANK 0 @BITDATASEC, @BITDATASEC1
  57  0000              @HCCINIT	.section 'data'
  58  0000              @HCCINIT0	.section 'data'
  59  0000              @BITDATASEC	 .section 'data'
"File: led.ASM       Assembler  Version HGASM0202      Page 2

  60  0000              @BITDATASEC1	 .section 'data'
  61  0000              
  62  0000              #pragma debug scope 1 1
  63  0000              	extern __DELAY3:near
  64  0000              	extern __DELAYX3:near
  65  0000              	extern __DELAYX6:near
  66  0000              	extern __DELAYY5:near
  67  0000              	extern __DELAYY3:near
  68  0000              	extern _builtin_holtek_delay_2:byte
  69  0000              ___pa equ [20]
  70  0000              ___pb equ [24]
  71  0000              public _S_LED_FLASH_CTRL
  72  0000              #pragma debug scope 2 1

  22  0000              #line 22 "D:\Porject\CO\Code\Copse Plan A\Procject_2030_6750\C\led.c"
  22  0000              _S_LED_FLASH_CTRL .section 'code'
  22  0000              _S_LED_FLASH_CTRL proc
  22  0000  00              local _S_LED_FLASH_CTRL_2 db 1 dup(?)	; 0,1
  28  0001              #line 28 "D:\Porject\CO\Code\Copse Plan A\Procject_2030_6750\C\led.c"
  28  0000  3800     E  	snz _R_LED_FG[0].0
  28  0001  2800     R  	jmp _L2
  28  0002              #pragma debug scope 3 2
  28  0002              ;begin block, line: 28.-1
  31  0002              #line 31 "D:\Porject\CO\Code\Copse Plan A\Procject_2030_6750\C\led.c"
  31  0002  0700     E  	mov a,_R_LED_STATE[0]
  31  0003  0080     R  	mov _S_LED_FLASH_CTRL_2[0],a
  31  0004  0700     R  	mov a,_S_LED_FLASH_CTRL_2[0]
  31  0005  0A01        	sub a,1
  31  0006  3D0A        	sz z
  31  0007  2800     R  	jmp _L3
  31  0008  0A01        	sub a,(2)-(1)
  31  0009  3D0A        	sz z
  31  000A  2800     R  	jmp _L4
  33  000B              #line 33 "D:\Porject\CO\Code\Copse Plan A\Procject_2030_6750\C\led.c"
  33  000B  0700     R  	mov a,_S_LED_FLASH_CTRL_2[0]
  33  000C  0A04        	sub a,4
  33  000D  3D0A        	sz z
  33  000E  2800     R  	jmp _L5
  33  000F  2800     R  	jmp _L61
  33  0010              _L4:
  48  0010              #line 48 "D:\Porject\CO\Code\Copse Plan A\Procject_2030_6750\C\led.c"
  48  0010  3800     E  	snz _R_LED_FG[0].2
  48  0011  2800     R  	jmp _L11
  48  0012  3314        	set [20].6
  48  0013              _L11:
  49  0013              #line 49 "D:\Porject\CO\Code\Copse Plan A\Procject_2030_6750\C\led.c"
  49  0013  3800     E  	snz _R_LED_FG[0].1
  49  0014  2800     R  	jmp _L12
  49  0015  3118        	set [24].2
  49  0016              _L12:
  50  0016              #line 50 "D:\Porject\CO\Code\Copse Plan A\Procject_2030_6750\C\led.c"
  50  0016  3800     E  	snz _R_LED_FG[0].3
  50  0017  2800     R  	jmp _L13
  50  0018  3198        	set [24].3
  50  0019              _L13:
  51  0019              #line 51 "D:\Porject\CO\Code\Copse Plan A\Procject_2030_6750\C\led.c"
  51  0019  0F01        	mov a,1
  51  001A  0300     R  	add a,___R_LED_CNT_2241[0]
  51  001B  0080     E  	mov rb,a
  51  001C  0F00        	mov a,0
"File: led.c         Assembler  Version HGASM0202      Page 3

  51  001D  1300     R  	adc a,___R_LED_CNT_2241[1]
  51  001E  0080     E  	mov rc,a
  51  001F  0700     E  	mov a,rb
  51  0020  0080     R  	mov ___R_LED_CNT_2241[0],a
  51  0021  0700     E  	mov a,rc
  51  0022  0080     R  	mov ___R_LED_CNT_2241[1],a
  52  0023              #line 52 "D:\Porject\CO\Code\Copse Plan A\Procject_2030_6750\C\led.c"
  52  0023  0700     E  	mov a,_R_LEDOFF_CNTSET[0]
  52  0024  0080     E  	mov rd,a
  52  0025  1F00     E  	clr re
  52  0026              _L59:
  52  0026  0700     E  	mov a,rb
  52  0027  0200     E  	sub a,rd
  52  0028  0700     E  	mov a,rc
  52  0029  1200     E  	sbc a,re
  52  002A  380A        	snz c
  52  002B  2800     R  	jmp _L10
  52  002C  2800     R  	jmp _L57
  52  002D              _L5:
  52  002D  1400     R  	inca ___R_LED_SERIES_2242[0]
  52  002E  0080     R  	mov _S_LED_FLASH_CTRL_2[0],a
  60  002F              #line 60 "D:\Porject\CO\Code\Copse Plan A\Procject_2030_6750\C\led.c"
  60  002F  3800     E  	snz _R_LED_FG1[0].5
  60  0030  2800     R  	jmp _L15
  62  0031              #line 62 "D:\Porject\CO\Code\Copse Plan A\Procject_2030_6750\C\led.c"
  62  0031  3000     E  	set _R_LED_FG1[0].2
  63  0032              #line 63 "D:\Porject\CO\Code\Copse Plan A\Procject_2030_6750\C\led.c"
  63  0032  0700     R  	mov a,_S_LED_FLASH_CTRL_2[0]
  63  0033  0080     R  	mov ___R_LED_SERIES_2242[0],a
  64  0034              #line 64 "D:\Porject\CO\Code\Copse Plan A\Procject_2030_6750\C\led.c"
  64  0034  0700     R  	mov a,_S_LED_FLASH_CTRL_2[0]
  64  0035  0200     E  	sub a,_R_LED_SERIESSET[0]
  64  0036  380A        	snz c
  64  0037  2800     R  	jmp _L10
  66  0038              #line 66 "D:\Porject\CO\Code\Copse Plan A\Procject_2030_6750\C\led.c"
  66  0038  3400     E  	clr _R_LED_FG1[0].2
  67  0039              #line 67 "D:\Porject\CO\Code\Copse Plan A\Procject_2030_6750\C\led.c"
  67  0039  3000     E  	set _R_LED_FG1[0].4
  67  003A  2800     R  	jmp _L10
  67  003B              _L15:
  73  003B              #line 73 "D:\Porject\CO\Code\Copse Plan A\Procject_2030_6750\C\led.c"
  73  003B  3000     E  	set _R_LED_FG1[0].2
  74  003C              #line 74 "D:\Porject\CO\Code\Copse Plan A\Procject_2030_6750\C\led.c"
  74  003C  0700     R  	mov a,_S_LED_FLASH_CTRL_2[0]
  74  003D  0080     R  	mov ___R_LED_SERIES_2242[0],a
  75  003E              #line 75 "D:\Porject\CO\Code\Copse Plan A\Procject_2030_6750\C\led.c"
  75  003E  0700     R  	mov a,_S_LED_FLASH_CTRL_2[0]
  75  003F  0200     E  	sub a,_R_LED_SERIESSET[0]
  75  0040  380A        	snz c
  75  0041  2800     R  	jmp _L10
  77  0042              #line 77 "D:\Porject\CO\Code\Copse Plan A\Procject_2030_6750\C\led.c"
  77  0042  3400     E  	clr _R_LED_FG1[0].2
  78  0043              #line 78 "D:\Porject\CO\Code\Copse Plan A\Procject_2030_6750\C\led.c"
  78  0043  1F00     R  	clr ___R_LED_SERIES_2242[0]
  79  0044              #line 79 "D:\Porject\CO\Code\Copse Plan A\Procject_2030_6750\C\led.c"
  79  0044  3000     E  	set _R_LED_FG1[0].3
  79  0045              _L57:
  80  0045              #line 80 "D:\Porject\CO\Code\Copse Plan A\Procject_2030_6750\C\led.c"
  80  0045  3000     E  	set _R_LED_FG1[0].1
  80  0046  2800     R  	jmp _L10
"File: led.c         Assembler  Version HGASM0202      Page 4

  80  0047              _L61:
  87  0047              #line 87 "D:\Porject\CO\Code\Copse Plan A\Procject_2030_6750\C\led.c"
  87  0047  3800     E  	snz _R_LED_FG[0].2
  87  0048  2800     R  	jmp _L24
  87  0049  3314        	set [20].6
  87  004A              _L24:
  88  004A              #line 88 "D:\Porject\CO\Code\Copse Plan A\Procject_2030_6750\C\led.c"
  88  004A  3800     E  	snz _R_LED_FG[0].1
  88  004B  2800     R  	jmp _L16
  88  004C  3118        	set [24].2
  88  004D              _L16:
  89  004D              #line 89 "D:\Porject\CO\Code\Copse Plan A\Procject_2030_6750\C\led.c"
  89  004D  3800     E  	snz _R_LED_FG[0].3
  89  004E  2800     R  	jmp _L17
  89  004F  3198        	set [24].3
  89  0050              _L17:
  90  0050              #line 90 "D:\Porject\CO\Code\Copse Plan A\Procject_2030_6750\C\led.c"
  90  0050  3400     E  	clr _R_LED_FG1[0].2
  91  0051              #line 91 "D:\Porject\CO\Code\Copse Plan A\Procject_2030_6750\C\led.c"
  91  0051  0F01        	mov a,1
  91  0052  0300     R  	add a,___R_LED_CNT_2241[0]
  91  0053  0080     E  	mov rb,a
  91  0054  0F00        	mov a,0
  91  0055  1300     R  	adc a,___R_LED_CNT_2241[1]
  91  0056  0080     E  	mov rc,a
  91  0057  0700     E  	mov a,rb
  91  0058  0080     R  	mov ___R_LED_CNT_2241[0],a
  91  0059  0700     E  	mov a,rc
  91  005A  0080     R  	mov ___R_LED_CNT_2241[1],a
  92  005B              #line 92 "D:\Porject\CO\Code\Copse Plan A\Procject_2030_6750\C\led.c"
  92  005B  0700     E  	mov a,rb
  92  005C  0200     E  	sub a,_R_LEDWAIT_CNTSET[0]
  92  005D  0700     E  	mov a,rc
  92  005E  1200     E  	sbc a,_R_LEDWAIT_CNTSET[1]
  92  005F  380A        	snz c
  92  0060  2800     R  	jmp _L10
  92  0061  3000     E  	set _R_LED_FG1[0].2
  92  0062              _L10:
 104  0062              #line 104 "D:\Porject\CO\Code\Copse Plan A\Procject_2030_6750\C\led.c"
 104  0062  3800     E  	snz _R_LED_FG1[0].2
 104  0063  2800     R  	jmp _L18
 106  0064              #line 106 "D:\Porject\CO\Code\Copse Plan A\Procject_2030_6750\C\led.c"
 106  0064  3400     E  	clr _R_LED_FG1[0].2
 107  0065              #line 107 "D:\Porject\CO\Code\Copse Plan A\Procject_2030_6750\C\led.c"
 107  0065  1F00     R  	clr ___R_LED_CNT_2241[0]
 107  0066  1F00     R  	clr ___R_LED_CNT_2241[1]
 109  0067              #line 109 "D:\Porject\CO\Code\Copse Plan A\Procject_2030_6750\C\led.c"
 109  0067  0F01        	mov a,1
 109  0068  0080     E  	mov _R_LED_STATE[0],a
 109  0069              _L18:
 113  0069              #line 113 "D:\Porject\CO\Code\Copse Plan A\Procject_2030_6750\C\led.c"
 113  0069  3800     E  	snz _R_LED_FG1[0].1
 113  006A  2800     R  	jmp _L19
 115  006B              #line 115 "D:\Porject\CO\Code\Copse Plan A\Procject_2030_6750\C\led.c"
 115  006B  3400     E  	clr _R_LED_FG1[0].1
 116  006C              #line 116 "D:\Porject\CO\Code\Copse Plan A\Procject_2030_6750\C\led.c"
 116  006C  1F00     R  	clr ___R_LED_CNT_2241[0]
 116  006D  1F00     R  	clr ___R_LED_CNT_2241[1]
 117  006E              #line 117 "D:\Porject\CO\Code\Copse Plan A\Procject_2030_6750\C\led.c"
 117  006E  0700     E  	mov a,_R_LED_STATE[0]
"File: led.c         Assembler  Version HGASM0202      Page 5

 117  006F  0380     E  	addm a,_R_LED_STATE[0]
 117  0070              _L19:
 120  0070              #line 120 "D:\Porject\CO\Code\Copse Plan A\Procject_2030_6750\C\led.c"
 120  0070  3800     E  	snz _R_LED_FG1[0].4
 120  0071  2800     R  	jmp _L1
 122  0072              #line 122 "D:\Porject\CO\Code\Copse Plan A\Procject_2030_6750\C\led.c"
 122  0072  3400     E  	clr _R_LED_FG1[0].4
 123  0073              #line 123 "D:\Porject\CO\Code\Copse Plan A\Procject_2030_6750\C\led.c"
 123  0073  3400     E  	clr _R_LED_FG1[0].0
 124  0074              #line 124 "D:\Porject\CO\Code\Copse Plan A\Procject_2030_6750\C\led.c"
 124  0074  1F00     E  	clr _R_LED_STATE[0]
 124  0075  2800     R  	jmp _L1
 124  0076              _L2:
 124  0076              #pragma debug scope 2 1
 129  0076              #line 129 "D:\Porject\CO\Code\Copse Plan A\Procject_2030_6750\C\led.c"
 129  0076  1F00     R  	clr ___R_LED_CNT_2241[0]
 129  0077  1F00     R  	clr ___R_LED_CNT_2241[1]
 130  0078              #line 130 "D:\Porject\CO\Code\Copse Plan A\Procject_2030_6750\C\led.c"
 130  0078  1F00     R  	clr ___R_LED_SERIES_2242[0]
 130  0079  2800     R  	jmp _L1
 130  007A              _L3:
 130  007A              #pragma debug scope 4 2
 130  007A              ;begin block, line: 130.-1
  39  007A              #line 39 "D:\Porject\CO\Code\Copse Plan A\Procject_2030_6750\C\led.c"
  39  007A  3800     E  	snz _R_LED_FG[0].2
  39  007B  2800     R  	jmp _L22
  39  007C  3714        	clr [20].6
  39  007D              _L22:
  40  007D              #line 40 "D:\Porject\CO\Code\Copse Plan A\Procject_2030_6750\C\led.c"
  40  007D  3800     E  	snz _R_LED_FG[0].1
  40  007E  2800     R  	jmp _L7
  40  007F  3518        	clr [24].2
  40  0080              _L7:
  41  0080              #line 41 "D:\Porject\CO\Code\Copse Plan A\Procject_2030_6750\C\led.c"
  41  0080  3800     E  	snz _R_LED_FG[0].3
  41  0081  2800     R  	jmp _L8
  41  0082  3598        	clr [24].3
  41  0083              _L8:
  42  0083              #line 42 "D:\Porject\CO\Code\Copse Plan A\Procject_2030_6750\C\led.c"
  42  0083  0F01        	mov a,1
  42  0084  0300     R  	add a,___R_LED_CNT_2241[0]
  42  0085  0080     E  	mov rb,a
  42  0086  0F00        	mov a,0
  42  0087  1300     R  	adc a,___R_LED_CNT_2241[1]
  42  0088  0080     E  	mov rc,a
  42  0089  0700     E  	mov a,rb
  42  008A  0080     R  	mov ___R_LED_CNT_2241[0],a
  42  008B  0700     E  	mov a,rc
  42  008C  0080     R  	mov ___R_LED_CNT_2241[1],a
  43  008D              #line 43 "D:\Porject\CO\Code\Copse Plan A\Procject_2030_6750\C\led.c"
  43  008D  0700     E  	mov a,_R_LEDON_CNTSET[0]
  43  008E  0080     E  	mov rd,a
  43  008F  1F00     E  	clr re
  43  0090  2800     R  	jmp _L59
  43  0091              _L1:
  43  0091              #pragma debug scope 2 1
  43  0091  0003        	ret
  43  0092              _S_LED_FLASH_CTRL endp
  43  0092              #line 43 "D:\Porject\CO\Code\Copse Plan A\Procject_2030_6750\C\led.c"
  43  0092              #pragma debug scope 1 1
"File: led.c         Assembler  Version HGASM0202      Page 6

  43  0092              public _LED_STOPFLASH
  43  0092              #pragma debug scope 5 1
 144  0092              #line 144 "D:\Porject\CO\Code\Copse Plan A\Procject_2030_6750\C\led.c"
 144  0000              _LED_STOPFLASH .section 'code'
 144  0000              _LED_STOPFLASH proc
 145  0000              #line 145 "D:\Porject\CO\Code\Copse Plan A\Procject_2030_6750\C\led.c"
 145  0000  3118        	set [24].2
 146  0001              #line 146 "D:\Porject\CO\Code\Copse Plan A\Procject_2030_6750\C\led.c"
 146  0001  3314        	set [20].6
 147  0002              #line 147 "D:\Porject\CO\Code\Copse Plan A\Procject_2030_6750\C\led.c"
 147  0002  3198        	set [24].3
 148  0003              #line 148 "D:\Porject\CO\Code\Copse Plan A\Procject_2030_6750\C\led.c"
 148  0003  1F00     E  	clr _R_LED_FG[0]
 148  0004  0003        	ret
 148  0005              _LED_STOPFLASH endp
 148  0005              #line 148 "D:\Porject\CO\Code\Copse Plan A\Procject_2030_6750\C\led.c"
 148  0005              #pragma debug scope 1 1
 148  0005              public _S_LED_ON
 148  0005              #pragma debug scope 6 1
 227  0005              #line 227 "D:\Porject\CO\Code\Copse Plan A\Procject_2030_6750\C\led.c"
 227  0000              _S_LED_ON .section 'code'
 227  0000              _S_LED_ON proc
 227  0000              public _S_LED_ON_2
 227  0000  0006[           local _S_LED_ON_2 db 6 dup(?)	; 5,1
            00
            ]
 227  0000  0080     R  	mov _S_LED_ON_2[5],a
 227  0001              #pragma debug variable 8 6 _S_LED_ON_2+5 "R_LED_ON"
 227  0001              #pragma debug variable 8 6 _S_LED_ON_2+0 "R_LED_OFF"
 227  0001              #pragma debug variable 8 6 _S_LED_ON_2+1 "R_LED_CNT"
 227  0001              #pragma debug variable 12 6 _S_LED_ON_2+2 "R_LED_WAIT"
 227  0001              #pragma debug variable 8 6 _S_LED_ON_2+4 "R_LED_ONCE"
 228  0001              #line 228 "D:\Porject\CO\Code\Copse Plan A\Procject_2030_6750\C\led.c"
 228  0001  3800     E  	snz _R_SYS_FG[0].2
 228  0002  2800     R  	jmp _L64
 230  0003              #line 230 "D:\Porject\CO\Code\Copse Plan A\Procject_2030_6750\C\led.c"
 230  0003  0F05        	mov a,5
 230  0004  0080     E  	mov _S_Delay_ms_2[0],a
 230  0005  1F00     E  	clr _S_Delay_ms_2[1]
 230  0006  2000     E  	call _S_Delay_ms
 230  0007              _L64:
 232  0007              #line 232 "D:\Porject\CO\Code\Copse Plan A\Procject_2030_6750\C\led.c"
 232  0007  0700     R  	mov a,_S_LED_ON_2[5]
 232  0008  0080     E  	mov _R_LEDON_CNTSET[0],a
 233  0009              #line 233 "D:\Porject\CO\Code\Copse Plan A\Procject_2030_6750\C\led.c"
 233  0009  0700     R  	mov a,_S_LED_ON_2[0]
 233  000A  0080     E  	mov _R_LEDOFF_CNTSET[0],a
 234  000B              #line 234 "D:\Porject\CO\Code\Copse Plan A\Procject_2030_6750\C\led.c"
 234  000B  0700     R  	mov a,_S_LED_ON_2[1]
 234  000C  0080     E  	mov _R_LED_SERIESSET[0],a
 235  000D              #line 235 "D:\Porject\CO\Code\Copse Plan A\Procject_2030_6750\C\led.c"
 235  000D  1080     R  	sz _S_LED_ON_2[4]
 235  000E  2800     R  	jmp _L65
 237  000F              #line 237 "D:\Porject\CO\Code\Copse Plan A\Procject_2030_6750\C\led.c"
 237  000F  0700     R  	mov a,_S_LED_ON_2[2]
 237  0010  0080     E  	mov _R_LEDWAIT_CNTSET[0],a
 237  0011  0700     R  	mov a,_S_LED_ON_2[3]
 237  0012  0080     E  	mov _R_LEDWAIT_CNTSET[1],a
 238  0013              #line 238 "D:\Porject\CO\Code\Copse Plan A\Procject_2030_6750\C\led.c"
 238  0013  3400     E  	clr _R_LED_FG1[0].5
"File: led.c         Assembler  Version HGASM0202      Page 7

 238  0014  2800     R  	jmp _L66
 238  0015              _L65:
 242  0015              #line 242 "D:\Porject\CO\Code\Copse Plan A\Procject_2030_6750\C\led.c"
 242  0015  3000     E  	set _R_LED_FG1[0].5
 242  0016              _L66:
 244  0016              #line 244 "D:\Porject\CO\Code\Copse Plan A\Procject_2030_6750\C\led.c"
 244  0016  3000     E  	set _R_LED_FG[0].0
 245  0017              #line 245 "D:\Porject\CO\Code\Copse Plan A\Procject_2030_6750\C\led.c"
 245  0017  0F01        	mov a,1
 245  0018  0080     E  	mov _R_LED_STATE[0],a
 245  0019  0003        	ret
 245  001A              _S_LED_ON endp
 245  001A              #line 245 "D:\Porject\CO\Code\Copse Plan A\Procject_2030_6750\C\led.c"
 245  001A              #pragma debug scope 1 1
 245  001A              public _Amber_Blink
 245  001A              #pragma debug scope 7 1
 437  001A              #line 437 "D:\Porject\CO\Code\Copse Plan A\Procject_2030_6750\C\led.c"
 437  0000              _Amber_Blink .section 'code'
 437  0000              _Amber_Blink proc
 437  0000              public _Amber_Blink_2
 437  0000  0002[           local _Amber_Blink_2 db 2 dup(?)	; 2,0
            00
            ]
 437  0002              #pragma debug variable 12 7 _Amber_Blink_2+0 "Delay_ms"
 438  0002              #line 438 "D:\Porject\CO\Code\Copse Plan A\Procject_2030_6750\C\led.c"
 438  0000  3598        	clr [24].3
 439  0001              #line 439 "D:\Porject\CO\Code\Copse Plan A\Procject_2030_6750\C\led.c"
 439  0001  0700     R  	mov a,_Amber_Blink_2[0]
 439  0002  0080     E  	mov _S_Delay_ms_2[0],a
 439  0003  0700     R  	mov a,_Amber_Blink_2[1]
 439  0004  0080     E  	mov _S_Delay_ms_2[1],a
 439  0005  2000     E  	call _S_Delay_ms
 440  0006              #line 440 "D:\Porject\CO\Code\Copse Plan A\Procject_2030_6750\C\led.c"
 440  0006  3198        	set [24].3
 440  0007  0003        	ret
 440  0008              _Amber_Blink endp
 440  0008              #line 440 "D:\Porject\CO\Code\Copse Plan A\Procject_2030_6750\C\led.c"
 440  0008              #pragma debug scope 1 1
 440  0000              @HCCINIT0___R_LED_SERIES_2242 .section 'data'
 440  0000              ___R_LED_SERIES_2242	db 0
 440  0001              #pragma debug variable 8 2 ___R_LED_SERIES_2242 "R_LED_SERIES"
 440  0001              
 440  0000              @HCCINIT .section 'data'
 440  0000              @HCCINIT0___R_LED_CNT_2241 .section 'data'
 440  0000  0002[       ___R_LED_CNT_2241	db 2 dup(0)
            00
            ]
 440  0002              #pragma debug variable 12 2 ___R_LED_CNT_2241 "R_LED_CNT"
 440  0002              
 440  0000              @HCCINIT .section 'data'
 440  0000              #pragma debug struct_end
 440  0000              #pragma debug struct_end
 440  0000              #pragma debug union_end
 440  0000              #pragma debug union_end
 440  0000              #pragma debug variable 43 1 ___pa "__pa" 1
 440  0000              #pragma debug struct_end
 440  0000              #pragma debug struct_end
 440  0000              #pragma debug union_end
 440  0000              #pragma debug union_end
 440  0000              #pragma debug variable 45 1 ___pb "__pb" 1
"File: led.c         Assembler  Version HGASM0202      Page 8

 440  0000              
 440  0000              ; output external variables
 440  0000              extern _R_SYS_FG:byte
 440  0000              extern _R_LEDON_CNTSET:byte
 440  0000              extern _R_LEDWAIT_CNTSET:byte
 440  0000              extern _R_LED_SERIESSET:byte
 440  0000              extern _R_LED_FG1:byte
 440  0000              extern _R_LEDOFF_CNTSET:byte
 440  0000              extern _R_LED_STATE:byte
 440  0000              extern _R_LED_FG:byte
 440  0000              extern _S_Delay_ms_2:byte
 440  0000              extern _S_Delay_ms:near
 440  0000              
 440  0000              ; 
 440  0000              ; Generated by holtek-gcc v3.19, Fri Jan 21 10:03:43 2022
 440  0000              ; Rebuild 718
 440  0000              ; end of file


        0 Errors, 0