"File: eeprom.c      Assembler  Version HGASM0202      Page 1


   1  0000              ; Generated by holtek-gcc v3.19, Thu Feb 10 14:53:43 2022
   2  0000              ; 
   3  0000              ; Configuration:
   4  0000              ;       with long instruction
   5  0000              ;       Single ROM, Multi-RAM
   6  0000              ;       bits_per_rom_unit:16
   7  0000              ;       with mp1
   8  0000              ;       with tbhp, address(0x9)
   9  0000              ;          Use tabrd-const
  10  0000              ;       
  11  0000              ; SFR address of long-instruction arch:
  12  0000              ;    mp0 = -1,1,0
  13  0000              ;    mp1 = 4,3,2
  14  0000              ;    mp2 = 14,13,12
  15  0000              ;    tbp = 9,7,8
  16  0000              ;    acc = 5
  17  0000              ;    pcl = 6
  18  0000              ;    status = 10
  19  0000              ;    bp = 11
  20  0000              ;    intc = 73
  21  0000              ;       
  22  0000              ;       
  23  0000              ; use 'tabrdc' instead of 'tabrd'
  24  0000              ;       
  25  0000              
  26  0000              #pragma translator "holtek-gcc 4.6.4" "3.19" "build 20130711"
  27  0000              ; Rebuild 718
  28  0000              
  29  0000              ir equ [2]
  30  0000              mp equ [3]
  31  0000              sbp equ [4]
  32  0000              acc equ [5]
  33  0000              bp equ [11]
  34  0000              tblp equ [7]
  35  0000              tbhp equ [9]
  36  0000              status equ [10]
  37  0000              c equ [10].0
  38  0000              ac equ [10].1
  39  0000              z equ [10].2
  40  0000              ov equ [10].3
  41  0000              cz equ [10].6
  42  0000              sc equ [10].7
  43  0000              intc equ [73]
  44  0000              
  45  0000              extern ra:byte
  46  0000              extern rb:byte
  47  0000              extern rc:byte
  48  0000              extern rd:byte
  49  0000              extern re:byte
  50  0000              extern rf:byte
  51  0000              extern rg:byte
  52  0000              extern rh:byte
  53  0000              extern _Crom2Prom:near
  54  0000              extern _Crom2PromNext:near
  55  0000              
  56  0000              RAMBANK 0 @BITDATASEC, @BITDATASEC1
  57  0000              @HCCINIT	.section 'data'
  58  0000              @HCCINIT0	.section 'data'
  59  0000              @BITDATASEC	 .section 'data'
"File: eeprom.ASM    Assembler  Version HGASM0202      Page 2

  60  0000              @BITDATASEC1	 .section 'data'
  61  0000              
  62  0000              #pragma debug scope 1 1
  63  0000              	extern __DELAY3:near
  64  0000              	extern __DELAYX3:near
  65  0000              	extern __DELAYX6:near
  66  0000              	extern __DELAYY5:near
  67  0000              	extern __DELAYY3:near
  68  0000              	extern _builtin_holtek_delay_2:byte
  69  0000              ___intc0 equ [73]
  70  0000              ___eea equ [62]
  71  0000              ___mp1l equ [3]
  72  0000              ___mp1h equ [4]
  73  0000              ___iar1 equ [2]
  74  0000              ___eed equ [63]
  75  0000              public _S_RD_EE
  76  0000              #pragma debug scope 2 1

  19  0000              #line 19 "D:\Porject\CO\Code\Copse Plan A\Procject_2030_6750\C\eeprom.c"
  19  0000              _S_RD_EE .section 'code'
  19  0000              _S_RD_EE proc
  19  0000  00              local _S_RD_EE_2 db 1 dup(?)	; 0,1
  19  0000  0080     R  	mov _S_RD_EE_2[0],a
  19  0001              #pragma debug variable 8 2 _S_RD_EE_2+0 "RD_EE_addr"
  19  0001              #pragma debug scope 3 2
  19  0001              ;begin block, line: 19.-1
  23  0001              #line 23 "D:\Porject\CO\Code\Copse Plan A\Procject_2030_6750\C\eeprom.c"
  23  0001  3449        	clr [73].0
  24  0002              #line 24 "D:\Porject\CO\Code\Copse Plan A\Procject_2030_6750\C\eeprom.c"
  24  0002  0700     R  	mov a,_S_RD_EE_2[0]
  24  0003  00BE        	mov [62],a
  25  0004              #line 25 "D:\Porject\CO\Code\Copse Plan A\Procject_2030_6750\C\eeprom.c"
  25  0004  0F40        	mov a,64
  25  0005  0083        	mov [3],a
  26  0006              #line 26 "D:\Porject\CO\Code\Copse Plan A\Procject_2030_6750\C\eeprom.c"
  26  0006  0F01        	mov a,1
  26  0007  0084        	mov [4],a
  27  0008              #line 27 "D:\Porject\CO\Code\Copse Plan A\Procject_2030_6750\C\eeprom.c"
  27  0008  0F03        	mov a,3
  27  0009  0582        	orm a,[2]
  27  000A              _L3:
  30  000A              #line 30 "D:\Porject\CO\Code\Copse Plan A\Procject_2030_6750\C\eeprom.c"
  30  000A  3C02        	sz [2].0
  30  000B  2800     R  	jmp _L3
  31  000C              #line 31 "D:\Porject\CO\Code\Copse Plan A\Procject_2030_6750\C\eeprom.c"
  31  000C  1F02        	clr [2]
  32  000D              #line 32 "D:\Porject\CO\Code\Copse Plan A\Procject_2030_6750\C\eeprom.c"
  32  000D  1F04        	clr [4]
  33  000E              #line 33 "D:\Porject\CO\Code\Copse Plan A\Procject_2030_6750\C\eeprom.c"
  33  000E  073F        	mov a,[63]
  33  000F  0080     E  	mov ra,a
  34  0010              #line 34 "D:\Porject\CO\Code\Copse Plan A\Procject_2030_6750\C\eeprom.c"
  34  0010  3049        	set [73].0
  34  0011              #pragma debug scope 2 1
  37  0011              #line 37 "D:\Porject\CO\Code\Copse Plan A\Procject_2030_6750\C\eeprom.c"
  37  0011  0700     E  	mov a,ra
  37  0012  0003        	ret
  37  0013              _S_RD_EE endp
  37  0013              #line 37 "D:\Porject\CO\Code\Copse Plan A\Procject_2030_6750\C\eeprom.c"
  37  0013              #pragma debug scope 1 1
"File: eeprom.c      Assembler  Version HGASM0202      Page 3

  37  0013              public _S_WR_EE
  37  0013              #pragma debug scope 4 1
  47  0013              #line 47 "D:\Porject\CO\Code\Copse Plan A\Procject_2030_6750\C\eeprom.c"
  47  0000              _S_WR_EE .section 'code'
  47  0000              _S_WR_EE proc
  47  0000              public _S_WR_EE_2
  47  0000  0002[           local _S_WR_EE_2 db 2 dup(?)	; 1,1
            00
            ]
  47  0000  0080     R  	mov _S_WR_EE_2[1],a
  47  0001              #pragma debug variable 8 4 _S_WR_EE_2+1 "WR_EE_addr"
  47  0001              #pragma debug variable 8 4 _S_WR_EE_2+0 "WR_EE_data"
  50  0001              #line 50 "D:\Porject\CO\Code\Copse Plan A\Procject_2030_6750\C\eeprom.c"
  50  0001  3449        	clr [73].0
  51  0002              #line 51 "D:\Porject\CO\Code\Copse Plan A\Procject_2030_6750\C\eeprom.c"
  51  0002  0700     R  	mov a,_S_WR_EE_2[1]
  51  0003  00BE        	mov [62],a
  52  0004              #line 52 "D:\Porject\CO\Code\Copse Plan A\Procject_2030_6750\C\eeprom.c"
  52  0004  0700     R  	mov a,_S_WR_EE_2[0]
  52  0005  00BF        	mov [63],a
  53  0006              #line 53 "D:\Porject\CO\Code\Copse Plan A\Procject_2030_6750\C\eeprom.c"
  53  0006  0F40        	mov a,64
  53  0007  0083        	mov [3],a
  54  0008              #line 54 "D:\Porject\CO\Code\Copse Plan A\Procject_2030_6750\C\eeprom.c"
  54  0008  0F01        	mov a,1
  54  0009  0084        	mov [4],a
  55  000A              #line 55 "D:\Porject\CO\Code\Copse Plan A\Procject_2030_6750\C\eeprom.c"
  55  000A  3182        	set [2].3
  56  000B              #line 56 "D:\Porject\CO\Code\Copse Plan A\Procject_2030_6750\C\eeprom.c"
  56  000B  3102        	set [2].2
  56  000C              _L7:
  57  000C              #line 57 "D:\Porject\CO\Code\Copse Plan A\Procject_2030_6750\C\eeprom.c"
  57  000C  3D02        	sz [2].2
  57  000D  2800     R  	jmp _L7
  58  000E              #line 58 "D:\Porject\CO\Code\Copse Plan A\Procject_2030_6750\C\eeprom.c"
  58  000E  1F02        	clr [2]
  59  000F              #line 59 "D:\Porject\CO\Code\Copse Plan A\Procject_2030_6750\C\eeprom.c"
  59  000F  1F04        	clr [4]
  60  0010              #line 60 "D:\Porject\CO\Code\Copse Plan A\Procject_2030_6750\C\eeprom.c"
  60  0010  3049        	set [73].0
  60  0011  0003        	ret
  60  0012              _S_WR_EE endp
  60  0012              #line 60 "D:\Porject\CO\Code\Copse Plan A\Procject_2030_6750\C\eeprom.c"
  60  0012              #pragma debug scope 1 1
  60  0012              public _Save_CheckSum
  60  0012              #pragma debug scope 5 1
  72  0012              #line 72 "D:\Porject\CO\Code\Copse Plan A\Procject_2030_6750\C\eeprom.c"
  72  0000              _Save_CheckSum .section 'code'
  72  0000              _Save_CheckSum proc
  72  0000              public _Save_CheckSum_2
  72  0000  0003[           local _Save_CheckSum_2 db 3 dup(?)	; 2,1
            00
            ]
  72  0003              #pragma debug variable 12 5 _Save_CheckSum_2+0 "sum"
  73  0003              #line 73 "D:\Porject\CO\Code\Copse Plan A\Procject_2030_6750\C\eeprom.c"
  73  0000  0700     R  	mov a,_Save_CheckSum_2[0]
  73  0001  0080     R  	mov _Save_CheckSum_2[2],a
  73  0002  0700     R  	mov a,_Save_CheckSum_2[2]
  73  0003  0080     R  	mov _S_WR_EE_2[0],a
  73  0004  0F7F        	mov a,127
"File: eeprom.c      Assembler  Version HGASM0202      Page 4

  73  0005  2000     R  	call _S_WR_EE
  74  0006              #line 74 "D:\Porject\CO\Code\Copse Plan A\Procject_2030_6750\C\eeprom.c"
  74  0006  0700     R  	mov a,_Save_CheckSum_2[2]
  74  0007  0080     R  	mov _S_WR_EE_2[0],a
  74  0008  0FFF        	mov a,255
  74  0009  2000     R  	call _S_WR_EE
  74  000A  0003        	ret
  74  000B              _Save_CheckSum endp
  74  000B              #line 74 "D:\Porject\CO\Code\Copse Plan A\Procject_2030_6750\C\eeprom.c"
  74  000B              #pragma debug scope 1 1
  74  000B              #pragma debug variable 8 1 ___mp1l "__mp1l" 1
  74  000B              #pragma debug variable 8 1 ___mp1h "__mp1h" 1
  74  000B              #pragma debug struct_end
  74  000B              #pragma debug struct_end
  74  000B              #pragma debug union_end
  74  000B              #pragma debug union_end
  74  000B              #pragma debug variable 43 1 ___eea "__eea" 1
  74  000B              #pragma debug struct_end
  74  000B              #pragma debug struct_end
  74  000B              #pragma debug union_end
  74  000B              #pragma debug union_end
  74  000B              #pragma debug variable 45 1 ___eed "__eed" 1
  74  000B              #pragma debug struct_end
  74  000B              #pragma debug struct_end
  74  000B              #pragma debug union_end
  74  000B              #pragma debug union_end
  74  000B              #pragma debug variable 47 1 ___intc0 "__intc0" 1
  74  000B              #pragma debug variable 8 1 ___iar1 "__iar1" 1
  74  000B              
  74  000B              ; 
  74  000B              ; Generated by holtek-gcc v3.19, Thu Feb 10 14:53:43 2022
  74  000B              ; Rebuild 718
  74  000B              ; end of file


        0 Errors, 0